…
duration_summary <- sl_year0_unused_levels_dropped %>% group_by(title_factor,artist_name_factor) %>% summarise(max_duration=max(duration))

readr::write_csv(duration_summary,"duration_summary.csv")
readr::read_csv("duration_summary.csv")
```

    ## Parsed with column specification:
    ## cols(
    ##   title_factor = col_character(),
    ##   artist_name_factor = col_character(),
    ##   max_duration = col_double()
    ## )

    ## # A tibble: 9,970 x 3
    ##                 title_factor     artist_name_factor max_duration
    ##                        <chr>                  <chr>        <dbl>
    ##  1 Pictures At An Exhibition Emerson_ Lake & Palmer    2149.3285
    ##  2              Time To Melt                   Lard    1915.7938
    ##  3                 My Shadow            Tiny Vipers    1770.2657
    ##  4                   Harmony         Blonde Redhead     316.0551
    ##  5                   Harmony       Takagi Masakatsu    1626.6967
    ##  6               Black Gipsy           Archie Shepp    1539.3171
    ##  7               Reflections             Home Grown    1535.9473
    ##  8               Reflections              Zero Hour     236.4338
    ##  9            September Song             Pygmy Lush    1500.2379
    ## 10                 Black Ice           Bill Laswell    1476.8844
    ## # ... with 9,960 more rows

``` r
saveRDS(duration_summary, "duration_summary.rds")
readRDS("duration_summary.rds")
```

    ## # A tibble: 9,970 x 3
    ## # Groups:   title_factor [?]
    ##                 title_factor     artist_name_factor max_duration
    ##                       <fctr>                 <fctr>        <dbl>
    ##  1 Pictures At An Exhibition Emerson_ Lake & Palmer    2149.3285
    ##  2              Time To Melt                   Lard    1915.7938
    ##  3                 My Shadow            Tiny Vipers    1770.2657
    ##  4                   Harmony         Blonde Redhead     316.0551
    ##  5                   Harmony       Takagi Masakatsu    1626.6967
    ##  6               Black Gipsy           Archie Shepp    1539.3171
    ##  7               Reflections             Home Grown    1535.9473
    ##  8               Reflections              Zero Hour     236.4338
    ##  9            September Song             Pygmy Lush    1500.2379
    ## 10                 Black Ice           Bill Laswell    1476.8844
    ## # ... with 9,960 more rows

``` r
dput(duration_summary, "duration_summary-dput.txt")
duration_summary_exp_dget <- dget("duration_summary-dput.txt")
duration_summary_exp_dget
```

    ## # A tibble: 9,970 x 3
    ## # Groups:   title_factor [?]
    ##                 title_factor     artist_name_factor max_duration
    ##                       <fctr>                 <fctr>        <dbl>
    ##  1 Pictures At An Exhibition Emerson_ Lake & Palmer    2149.3285
    ##  2              Time To Melt                   Lard    1915.7938
    ##  3                 My Shadow            Tiny Vipers    1770.2657
    ##  4                   Harmony         Blonde Redhead     316.0551
    ##  5                   Harmony       Takagi Masakatsu    1626.6967
    ##  6               Black Gipsy           Archie Shepp    1539.3171
    ##  7               Reflections             Home Grown    1535.9473
    ##  8               Reflections              Zero Hour     236.4338
    ##  9            September Song             Pygmy Lush    1500.2379
    ## 10                 Black Ice           Bill Laswell    1476.8844
    ## # ... with 9,960 more rows
…
