…
en_words <- read_tsv(args[1], col_names="Words")
```

    ## Parsed with column specification:
    ## cols(
    ##   Words = col_character()
    ## )

``` r
head(en_words, n=100)
```

    ## # A tibble: 100 x 1
    ##        Words
    ##        <chr>
    ##  1         a
    ##  2       aah
    ##  3     aahed
    ##  4    aahing
    ##  5      aahs
    ##  6  aardvark
    ##  7 aardvarks
    ##  8  aardwolf
    ##  9        ab
    ## 10     abaci
    ## # ... with 90 more rows
…
