…
``` r
## do for all countries
quadratic.model.all <- function(dat, offset = 1952) {
  the_fit <- lm(gdpPercap ~ I(year - offset) + I((year - offset)^2), dat)
  setNames(data.frame(t(coef(the_fit))), c("intercept", "coef1", "coef2"))
}

gfits_me <- gapminder %>%
  group_by(country, continent) %>% 
  do(quadratic.model.all(.))

gfits_me
```

    ## # A tibble: 142 x 5
    ## # Groups:   country, continent [142]
    ##        country continent  intercept      coef1       coef2
    ##         <fctr>    <fctr>      <dbl>      <dbl>       <dbl>
    ##  1 Afghanistan      Asia   830.6885  -2.348318  0.03468604
    ##  2     Albania    Europe  1936.9359  32.958467  0.39089918
    ##  3     Algeria    Africa  2165.0924 123.465726 -1.07608592
    ##  4      Angola    Africa  4518.9533 -55.943981  0.59440952
    ##  5   Argentina  Americas  6273.8961 122.132089 -0.64218954
    ##  6   Australia   Oceania 10238.8161 187.254193  4.35632179
    ##  7     Austria    Europe  6172.1838 479.251583  1.00583143
    ##  8     Bahrain      Asia 10844.2954 225.144088  0.98836946
    ##  9  Bangladesh      Asia   745.6704 -15.531985  0.47337677
    ## 10     Belgium    Europe  7863.6079 377.567611  1.56905062
    ## # ... with 132 more rows

Task 6: Work with a nested data frame
-------------------------------------

Step 1: Nest the data

``` r
(gap_nested <- gapminder %>% 
   group_by(continent, country) %>% 
   nest())
```

    ## # A tibble: 142 x 3
    ##    continent     country              data
    ##       <fctr>      <fctr>            <list>
    ##  1      Asia Afghanistan <tibble [12 x 4]>
    ##  2    Europe     Albania <tibble [12 x 4]>
    ##  3    Africa     Algeria <tibble [12 x 4]>
    ##  4    Africa      Angola <tibble [12 x 4]>
    ##  5  Americas   Argentina <tibble [12 x 4]>
    ##  6   Oceania   Australia <tibble [12 x 4]>
    ##  7    Europe     Austria <tibble [12 x 4]>
    ##  8      Asia     Bahrain <tibble [12 x 4]>
    ##  9      Asia  Bangladesh <tibble [12 x 4]>
    ## 10    Europe     Belgium <tibble [12 x 4]>
    ## # ... with 132 more rows
…
Step 4: Explore the estimated slopes and intercepts a bit.

Now that we have generated the linear model fit to each country, we can create some plots to explore the distributions of the slopes and intercepts.

``` r
(gap_coefs <- gap_coefs %>%
   mutate(term = recode(term,
                        `(Intercept)` = "intercept",
                        `I(year - 1950)` = "slope")))
```

    ## # A tibble: 284 x 7
    ##    continent     country      term   estimate   std.error  statistic
    ##       <fctr>      <fctr>     <chr>      <dbl>       <dbl>      <dbl>
    ##  1      Asia Afghanistan intercept 29.3566375 0.698981278  41.999176
    ##  2      Asia Afghanistan     slope  0.2753287 0.020450934  13.462890
    ##  3    Europe     Albania intercept 58.5597618 1.133575812  51.659325
    ##  4    Europe     Albania     slope  0.3346832 0.033166387  10.091036
    ##  5    Africa     Algeria intercept 42.2364149 0.756269040  55.848399
    ##  6    Africa     Algeria     slope  0.5692797 0.022127070  25.727749
    ##  7    Africa      Angola intercept 31.7079741 0.804287463  39.423683
    ##  8    Africa      Angola     slope  0.2093399 0.023532003   8.895964
    ##  9  Americas   Argentina intercept 62.2250191 0.167091314 372.401279
    ## 10  Americas   Argentina     slope  0.2317084 0.004888791  47.395847
    ## # ... with 274 more rows, and 1 more variables: p.value <dbl>

``` r
### A reshaped version of the estimates, gap_ests, is handy for numerical summarization and visualization.
(gap_ests <- gap_coefs %>% 
   select(continent:estimate) %>% 
   spread(key = term, value = estimate))
```

    ## # A tibble: 142 x 4
    ##    continent                  country intercept      slope
    ##  *    <fctr>                   <fctr>     <dbl>      <dbl>
    ##  1    Africa                  Algeria  42.23641 0.56927972
    ##  2    Africa                   Angola  31.70797 0.20933986
    ##  3    Africa                    Benin  38.92005 0.33423287
    ##  4    Africa                 Botswana  52.80778 0.06066853
    ##  5    Africa             Burkina Faso  33.95674 0.36397483
    ##  6    Africa                  Burundi  40.27037 0.15413427
    ##  7    Africa                 Cameroon  40.74917 0.25014685
    ##  8    Africa Central African Republic  38.44170 0.18390559
    ##  9    Africa                     Chad  39.30288 0.25324406
    ## 10    Africa                  Comoros  39.09522 0.45039091
    ## # ... with 132 more rows
…
